%FSTAX25Y25*%
%MOIN*%
%SFA1B1*%

%IPPOS*%
%AMD10*
4,1,8,0.017700,-0.011500,0.017700,0.011500,0.016400,0.012800,-0.016400,0.012800,-0.017700,0.011500,-0.017700,-0.011500,-0.016400,-0.012800,0.016400,-0.012800,0.017700,-0.011500,0.0*
1,1,0.002560,0.016400,-0.011500*
1,1,0.002560,0.016400,0.011500*
1,1,0.002560,-0.016400,0.011500*
1,1,0.002560,-0.016400,-0.011500*
%
%AMD11*
4,1,8,0.008400,-0.007100,0.008400,0.007100,0.007600,0.007900,-0.007600,0.007900,-0.008400,0.007100,-0.008400,-0.007100,-0.007600,-0.007900,0.007600,-0.007900,0.008400,-0.007100,0.0*
1,1,0.001580,0.007600,-0.007100*
1,1,0.001580,0.007600,0.007100*
1,1,0.001580,-0.007600,0.007100*
1,1,0.001580,-0.007600,-0.007100*
%
%AMD14*
4,1,8,-0.066900,0.024800,-0.066900,-0.024800,-0.064200,-0.027600,0.064200,-0.027600,0.066900,-0.024800,0.066900,0.024800,0.064200,0.027600,-0.064200,0.027600,-0.066900,0.024800,0.0*
1,1,0.005520,-0.064200,0.024800*
1,1,0.005520,-0.064200,-0.024800*
1,1,0.005520,0.064200,-0.024800*
1,1,0.005520,0.064200,0.024800*
%
%AMD15*
4,1,8,-0.110200,0.040700,-0.110200,-0.040700,-0.105700,-0.045300,0.105700,-0.045300,0.110200,-0.040700,0.110200,0.040700,0.105700,0.045300,-0.105700,0.045300,-0.110200,0.040700,0.0*
1,1,0.009060,-0.105700,0.040700*
1,1,0.009060,-0.105700,-0.040700*
1,1,0.009060,0.105700,-0.040700*
1,1,0.009060,0.105700,0.040700*
%
%AMD16*
4,1,8,-0.015700,0.003000,-0.015700,-0.003000,-0.012800,-0.005900,0.012800,-0.005900,0.015700,-0.003000,0.015700,0.003000,0.012800,0.005900,-0.012800,0.005900,-0.015700,0.003000,0.0*
1,1,0.005900,-0.012800,0.003000*
1,1,0.005900,-0.012800,-0.003000*
1,1,0.005900,0.012800,-0.003000*
1,1,0.005900,0.012800,0.003000*
%
%AMD17*
4,1,8,-0.031500,0.044100,-0.031500,-0.044100,-0.028300,-0.047200,0.028300,-0.047200,0.031500,-0.044100,0.031500,0.044100,0.028300,0.047200,-0.028300,0.047200,-0.031500,0.044100,0.0*
1,1,0.006300,-0.028300,0.044100*
1,1,0.006300,-0.028300,-0.044100*
1,1,0.006300,0.028300,-0.044100*
1,1,0.006300,0.028300,0.044100*
%
%AMD27*
4,1,8,-0.003500,-0.018700,0.003500,-0.018700,0.006900,-0.015300,0.006900,0.015300,0.003500,0.018700,-0.003500,0.018700,-0.006900,0.015300,-0.006900,-0.015300,-0.003500,-0.018700,0.0*
1,1,0.006880,-0.003500,-0.015300*
1,1,0.006880,0.003500,-0.015300*
1,1,0.006880,0.003500,0.015300*
1,1,0.006880,-0.003500,0.015300*
%
%AMD28*
4,1,8,0.008900,0.013800,-0.008900,0.013800,-0.009800,0.012800,-0.009800,-0.012800,-0.008900,-0.013800,0.008900,-0.013800,0.009800,-0.012800,0.009800,0.012800,0.008900,0.013800,0.0*
1,1,0.001960,0.008900,0.012800*
1,1,0.001960,-0.008900,0.012800*
1,1,0.001960,-0.008900,-0.012800*
1,1,0.001960,0.008900,-0.012800*
%
%AMD30*
4,1,8,0.018700,-0.003500,0.018700,0.003500,0.015300,0.006900,-0.015300,0.006900,-0.018700,0.003500,-0.018700,-0.003500,-0.015300,-0.006900,0.015300,-0.006900,0.018700,-0.003500,0.0*
1,1,0.006880,0.015300,-0.003500*
1,1,0.006880,0.015300,0.003500*
1,1,0.006880,-0.015300,0.003500*
1,1,0.006880,-0.015300,-0.003500*
%
%AMD39*
4,1,8,0.014900,0.013800,-0.014900,0.013800,-0.018300,0.010300,-0.018300,-0.010300,-0.014900,-0.013800,0.014900,-0.013800,0.018300,-0.010300,0.018300,0.010300,0.014900,0.013800,0.0*
1,1,0.006880,0.014900,0.010300*
1,1,0.006880,-0.014900,0.010300*
1,1,0.006880,-0.014900,-0.010300*
1,1,0.006880,0.014900,-0.010300*
%
%AMD40*
4,1,8,0.004400,0.013800,-0.004400,0.013800,-0.005900,0.012300,-0.005900,-0.012300,-0.004400,-0.013800,0.004400,-0.013800,0.005900,-0.012300,0.005900,0.012300,0.004400,0.013800,0.0*
1,1,0.002960,0.004400,0.012300*
1,1,0.002960,-0.004400,0.012300*
1,1,0.002960,-0.004400,-0.012300*
1,1,0.002960,0.004400,-0.012300*
%
G04~CAMADD=10~8~0.0~0.0~255.9~354.3~12.8~0.0~15~0.0~0.0~0.0~0.0~0~0.0~0.0~0.0~0.0~0~0.0~0.0~0.0~270.0~354.0~256.0*
%ADD10D10*%
G04~CAMADD=11~8~0.0~0.0~157.5~167.3~7.9~0.0~15~0.0~0.0~0.0~0.0~0~0.0~0.0~0.0~0.0~0~0.0~0.0~0.0~270.0~168.0~159.0*
%ADD11D11*%
%ADD12R,0.021650X0.023620*%
%ADD13R,0.021650X0.023620*%
G04~CAMADD=14~8~0.0~0.0~551.2~1338.6~27.6~0.0~15~0.0~0.0~0.0~0.0~0~0.0~0.0~0.0~0.0~0~0.0~0.0~0.0~90.0~1340.0~551.0*
%ADD14D14*%
G04~CAMADD=15~8~0.0~0.0~905.5~2204.7~45.3~0.0~15~0.0~0.0~0.0~0.0~0~0.0~0.0~0.0~0.0~0~0.0~0.0~0.0~90.0~2205.0~905.0*
%ADD15D15*%
G04~CAMADD=16~8~0.0~0.0~118.1~315.0~29.5~0.0~15~0.0~0.0~0.0~0.0~0~0.0~0.0~0.0~0.0~0~0.0~0.0~0.0~90.0~315.0~118.0*
%ADD16D16*%
G04~CAMADD=17~8~0.0~0.0~944.9~629.9~31.5~0.0~15~0.0~0.0~0.0~0.0~0~0.0~0.0~0.0~0.0~0~0.0~0.0~0.0~90.0~630.0~944.0*
%ADD17D17*%
%ADD18R,0.019680X0.019680*%
%ADD19R,0.019680X0.019680*%
%ADD20R,0.019680X0.039370*%
%ADD21R,0.039370X0.019680*%
%ADD22R,0.023620X0.021650*%
%ADD23R,0.023620X0.021650*%
%ADD24R,0.035430X0.023620*%
%ADD25R,0.062990X0.082680*%
%ADD26R,0.023620X0.013780*%
G04~CAMADD=27~8~0.0~0.0~137.8~374.0~34.4~0.0~15~0.0~0.0~0.0~0.0~0~0.0~0.0~0.0~0.0~0~0.0~0.0~0.0~180.0~138.0~374.0*
%ADD27D27*%
G04~CAMADD=28~8~0.0~0.0~196.8~275.6~9.8~0.0~15~0.0~0.0~0.0~0.0~0~0.0~0.0~0.0~0.0~0~0.0~0.0~0.0~0.0~196.8~275.6*
%ADD28D28*%
%ADD29R,0.086610X0.118110*%
G04~CAMADD=30~8~0.0~0.0~137.8~374.0~34.4~0.0~15~0.0~0.0~0.0~0.0~0~0.0~0.0~0.0~0.0~0~0.0~0.0~0.0~270.0~374.0~138.0*
%ADD30D30*%
%ADD31O,0.037400X0.009840*%
%ADD32R,0.057090X0.068900*%
%ADD33R,0.137800X0.137800*%
%ADD34O,0.009840X0.033470*%
%ADD35O,0.033470X0.009840*%
%ADD36R,0.059050X0.076770*%
%ADD37R,0.096460X0.096460*%
%ADD38R,0.096460X0.096460*%
G04~CAMADD=39~8~0.0~0.0~366.1~275.6~34.4~0.0~15~0.0~0.0~0.0~0.0~0~0.0~0.0~0.0~0.0~0~0.0~0.0~0.0~0.0~366.1~275.6*
%ADD39D39*%
G04~CAMADD=40~8~0.0~0.0~118.1~275.6~14.8~0.0~15~0.0~0.0~0.0~0.0~0~0.0~0.0~0.0~0.0~0~0.0~0.0~0.0~0.0~118.1~275.6*
%ADD40D40*%
%ADD41C,0.015750*%
%ADD42C,0.007870*%
%ADD43C,0.010000*%
%ADD44C,0.011810*%
%ADD45C,0.019680*%
%ADD46C,0.023620*%
%ADD47C,0.051180*%
%ADD48R,0.047240X0.047240*%
%ADD49C,0.047240*%
%ADD50C,0.027560*%
%ADD51C,0.023620*%
%ADD52C,0.051180*%
%ADD53C,0.015750*%
%ADD54C,0.019680*%
%LNpcb_meanmodebus-1*%
%LPD*%
G36*
X-0056299Y-0010256D02*
Y-002124D01*
X-0058504Y-0023405*
X-0062008*
Y-002124*
X-0059724Y-0018012*
Y-0013484*
X-0062008Y-0010256*
Y-0008091*
X-0058504*
X-0056299Y-0010256*
G37*
G36*
X-0067913D02*
X-0070197Y-0013484D01*
Y-0018012*
X-0067913Y-002124*
Y-0023405*
X-0071417*
X-0073622Y-002124*
Y-0010256*
X-0071417Y-0008091*
X-0067913*
Y-0010256*
G37*
G36*
X-0141732Y-000846D02*
Y-0023622D01*
X-0143701Y-0025591*
X-015748*
X-0159449Y-0027559*
Y-0033465*
X-0161417Y-0035433*
X-0177165*
X-0179134Y-0033465*
Y-0011811*
X-0177165Y-0007874*
X-0176405*
X-0176297Y-0008696*
X-0175979Y-0009462*
X-0175475Y-001012*
X-0174817Y-0010625*
X-0174051Y-0010943*
X-0173228Y-0011051*
X-0172406Y-0010943*
X-017164Y-0010625*
X-0170982Y-001012*
X-0170477Y-0009462*
X-017016Y-0008696*
X-0170052Y-0007874*
X-0168504*
Y-0011024*
X-0162205*
Y-0007874*
X-0142318*
X-0141732Y-000846*
G37*
%LNpcb_meanmodebus-2*%
%LPC*%
G36*
X-0165854Y-0028171D02*
X-0166232Y-002822D01*
X-016705Y-0028559*
X-0167752Y-0029098*
X-0168291Y-0029801*
X-016863Y-0030618*
X-016868Y-0030996*
X-0165854*
Y-0028171*
G37*
G36*
X-0172728D02*
Y-0030996D01*
X-0169903*
X-0169953Y-0030618*
X-0170291Y-0029801*
X-017083Y-0029098*
X-0171533Y-0028559*
X-0172351Y-002822*
X-0172728Y-0028171*
G37*
G36*
X-0173228Y-0020445D02*
X-0174051Y-0020553D01*
X-0174817Y-0020871*
X-0175475Y-0021376*
X-0175979Y-0022034*
X-0176297Y-00228*
X-0176405Y-0023622*
X-0176297Y-0024444*
X-0175979Y-002521*
X-0175475Y-0025868*
X-0174817Y-0026373*
X-0174051Y-0026691*
X-0173228Y-0026799*
X-0172406Y-0026691*
X-017164Y-0026373*
X-0170982Y-0025868*
X-0170477Y-002521*
X-017016Y-0024444*
X-0170052Y-0023622*
X-017016Y-00228*
X-0170477Y-0022034*
X-0170982Y-0021376*
X-017164Y-0020871*
X-0172406Y-0020553*
X-0173228Y-0020445*
G37*
G36*
X-0164854Y-0028171D02*
Y-0030996D01*
X-0162029*
X-0162079Y-0030618*
X-0162417Y-0029801*
X-0162956Y-0029098*
X-0163659Y-0028559*
X-0164477Y-002822*
X-0164854Y-0028171*
G37*
G36*
X-0173728D02*
X-0174106Y-002822D01*
X-0174924Y-0028559*
X-0175626Y-0029098*
X-0176165Y-0029801*
X-0176504Y-0030618*
X-0176554Y-0030996*
X-0173728*
Y-0028171*
G37*
G36*
X-0162029Y-0031996D02*
X-0164854D01*
Y-0034821*
X-0164477Y-0034772*
X-0163659Y-0034433*
X-0162956Y-0033894*
X-0162417Y-0033192*
X-0162079Y-0032374*
X-0162029Y-0031996*
G37*
G36*
X-0173728D02*
X-0176554D01*
X-0176504Y-0032374*
X-0176165Y-0033192*
X-0175626Y-0033894*
X-0174924Y-0034433*
X-0174106Y-0034772*
X-0173728Y-0034821*
Y-0031996*
G37*
G36*
X-0169903D02*
X-0172728D01*
Y-0034821*
X-0172351Y-0034772*
X-0171533Y-0034433*
X-017083Y-0033894*
X-0170291Y-0033192*
X-0169953Y-0032374*
X-0169903Y-0031996*
G37*
G36*
X-0165854D02*
X-016868D01*
X-016863Y-0032374*
X-0168291Y-0033192*
X-0167752Y-0033894*
X-016705Y-0034433*
X-0166232Y-0034772*
X-0165854Y-0034821*
Y-0031996*
G37*
G36*
X-0165354Y-0020445D02*
X-0166176Y-0020553D01*
X-0166943Y-0020871*
X-0167601Y-0021376*
X-0168105Y-0022034*
X-0168423Y-00228*
X-0168531Y-0023622*
X-0168423Y-0024444*
X-0168105Y-002521*
X-0167601Y-0025868*
X-0166943Y-0026373*
X-0166176Y-0026691*
X-0165354Y-0026799*
X-0164532Y-0026691*
X-0163766Y-0026373*
X-0163108Y-0025868*
X-0162603Y-002521*
X-0162286Y-0024444*
X-0162178Y-0023622*
X-0162286Y-00228*
X-0162603Y-0022034*
X-0163108Y-0021376*
X-0163766Y-0020871*
X-0164532Y-0020553*
X-0165354Y-0020445*
G37*
G36*
X-0173228Y-0012571D02*
X-0174051Y-0012679D01*
X-0174817Y-0012997*
X-0175475Y-0013502*
X-0175979Y-001416*
X-0176297Y-0014926*
X-0176405Y-0015748*
X-0176297Y-001657*
X-0175979Y-0017336*
X-0175475Y-0017994*
X-0174817Y-0018499*
X-0174051Y-0018817*
X-0173228Y-0018925*
X-0172406Y-0018817*
X-017164Y-0018499*
X-0170982Y-0017994*
X-0170477Y-0017336*
X-017016Y-001657*
X-0170052Y-0015748*
X-017016Y-0014926*
X-0170477Y-001416*
X-0170982Y-0013502*
X-017164Y-0012997*
X-0172406Y-0012679*
X-0173228Y-0012571*
G37*
G36*
X-0165854Y-0016248D02*
X-016868D01*
X-016863Y-0016626*
X-0168291Y-0017444*
X-0167752Y-0018146*
X-016705Y-0018685*
X-0166232Y-0019024*
X-0165854Y-0019073*
Y-0016248*
G37*
G36*
X-0144177Y-0009925D02*
X-01495D01*
Y-0015248*
X-0144177*
Y-0009925*
G37*
G36*
X-01505D02*
X-0155823D01*
Y-0015248*
X-01505*
Y-0009925*
G37*
G36*
X-0162029Y-0016248D02*
X-0164854D01*
Y-0019073*
X-0164477Y-0019024*
X-0163659Y-0018685*
X-0162956Y-0018146*
X-0162417Y-0017444*
X-0162079Y-0016626*
X-0162029Y-0016248*
G37*
G36*
X-0164854Y-0012423D02*
Y-0015248D01*
X-0162029*
X-0162079Y-001487*
X-0162417Y-0014052*
X-0162956Y-001335*
X-0163659Y-0012811*
X-0164477Y-0012472*
X-0164854Y-0012423*
G37*
G36*
X-0165854D02*
X-0166232Y-0012472D01*
X-016705Y-0012811*
X-0167752Y-001335*
X-0168291Y-0014052*
X-016863Y-001487*
X-016868Y-0015248*
X-0165854*
Y-0012423*
G37*
G36*
X-0144177Y-0016248D02*
X-01495D01*
Y-0021571*
X-0144177*
Y-0016248*
G37*
G36*
X-01505D02*
X-0155823D01*
Y-0021571*
X-01505*
Y-0016248*
G37*
%LNpcb_meanmodebus-3*%
%LPD*%
G54D10*
X-0137795Y-0067028D03*
Y-0070768D03*
G54D11*
X-0141486Y-0071457D03*
Y-0068898D03*
Y-0066339D03*
X-0134104D03*
Y-0071457D03*
Y-0068898D03*
G54D12*
X-0122441Y-0071555D03*
X-0102362Y-0005906D03*
X-0094095D03*
X-0092421Y-0102657D03*
X-0132283Y-0082677D03*
Y-0088583D03*
Y-0100394D03*
Y-011811D03*
Y-0076772D03*
Y-0112205D03*
Y-0106299D03*
Y-0094488D03*
X-0090158Y-0047244D03*
X-0098032Y-0072835D03*
X-0155118Y-0076772D03*
Y-0082677D03*
Y-0088583D03*
Y-0100394D03*
Y-011811D03*
Y-0112205D03*
Y-0106299D03*
Y-0094488D03*
X-0125591Y-0067815D03*
X-0117815D03*
X-015315Y-0049213D03*
X-015Y-0057087D03*
X-015315Y-0029528D03*
X-015Y-0037402D03*
X-007874Y-0110236D03*
G54D13*
X-0125591Y-0071555D03*
X-0105512Y-0005906D03*
X-0090945D03*
X-0095571Y-0102657D03*
X-0135433Y-0082677D03*
Y-0088583D03*
Y-0100394D03*
Y-011811D03*
Y-0076772D03*
Y-0112205D03*
Y-0106299D03*
Y-0094488D03*
X-0087008Y-0047244D03*
X-0094882Y-0072835D03*
X-0151969Y-0076772D03*
Y-0082677D03*
Y-0088583D03*
Y-0100394D03*
Y-011811D03*
Y-0112205D03*
Y-0106299D03*
Y-0094488D03*
X-0122441Y-0067815D03*
X-0114665D03*
X-015Y-0049213D03*
X-015315Y-0057087D03*
X-015Y-0029528D03*
X-015315Y-0037402D03*
X-0075591Y-0110236D03*
G54D14*
X-0085039Y-009685D03*
Y-0087008D03*
G54D15*
X-0059055Y-0076772D03*
Y-0107087D03*
G54D16*
X-0077165Y-0055216D03*
Y-0057776D03*
Y-0060335D03*
Y-0062894D03*
X-0088189D03*
Y-0060335D03*
Y-0057776D03*
Y-0055216D03*
G54D17*
X-0082677Y-0059055D03*
G54D18*
X-0084547Y-0012205D03*
Y-0016142D03*
X-0102362Y-0035433D03*
Y-0031496D03*
X-007874Y-0035433D03*
Y-0031496D03*
X-0122047Y-0052067D03*
Y-004813D03*
X-0125984Y-0052067D03*
Y-004813D03*
X-0122047Y-003248D03*
Y-0028543D03*
X-0125984Y-003248D03*
Y-0028543D03*
X-0096161Y-0097047D03*
Y-009311D03*
G54D19*
X-0101673Y-0060925D03*
X-0097736D03*
X-0080709Y-0047244D03*
X-0076772D03*
X-0149606Y-005315D03*
X-0153543D03*
Y-0061122D03*
X-0149606D03*
Y-0033465D03*
X-0153543D03*
Y-0041437D03*
X-0149606D03*
X-0122047Y-0076772D03*
X-0125984D03*
G54D20*
X-0115157Y-0033465D03*
X-0109252D03*
X-0073819Y-011811D03*
X-0067913D03*
G54D21*
X-0096457Y-0048228D03*
Y-0054134D03*
G54D22*
X-0088681Y-0080216D03*
X-0066929Y-0065354D03*
X-007874Y-007126D03*
X-0070866Y-0065354D03*
X-0125984Y-0061516D03*
X-0122047Y-0058366D03*
Y-003878D03*
X-0125984Y-0041929D03*
G54D23*
X-0088681Y-0077067D03*
X-0066929Y-0068504D03*
X-007874Y-007441D03*
X-0070866Y-0068504D03*
X-0125984Y-0058366D03*
X-0122047Y-0061516D03*
Y-0041929D03*
X-0125984Y-003878D03*
G54D24*
X-0116142Y-0008858D03*
Y-0014764D03*
X-007874Y-0018701D03*
Y-0012795D03*
G54D25*
X-0090551Y-0035433D03*
G54D26*
X-0096063Y-0039173D03*
Y-0035433D03*
Y-0031693D03*
X-0085039D03*
Y-0035433D03*
Y-0039173D03*
G54D27*
X-0072047Y-0015748D03*
X-0057874D03*
G54D28*
X-0142224Y-0082677D03*
X-0145177D03*
X-0142224Y-0088583D03*
X-0145177D03*
X-0142224Y-0100394D03*
X-0145177D03*
X-0142224Y-011811D03*
X-0145177D03*
X-0142224Y-0076772D03*
X-0145177D03*
X-0142224Y-0112205D03*
X-0145177D03*
X-0142224Y-0106299D03*
X-0145177D03*
X-0142224Y-0094488D03*
X-0145177D03*
G54D29*
X-0098425Y-0017717D03*
G54D30*
X-0090847Y-0012992D03*
Y-0016142D03*
Y-0019291D03*
Y-0022441D03*
X-0106004D03*
Y-0019291D03*
Y-0016142D03*
Y-0012992D03*
G54D31*
X-0143701Y-003248D03*
Y-0034449D03*
Y-0036417D03*
Y-0038386D03*
X-013189D03*
Y-0036417D03*
Y-0034449D03*
Y-003248D03*
X-0143701Y-0052165D03*
Y-0054134D03*
Y-0056102D03*
Y-0058071D03*
X-013189D03*
Y-0056102D03*
Y-0054134D03*
Y-0052165D03*
G54D32*
X-0137795Y-0035433D03*
Y-0055118D03*
G54D33*
X-0112992Y-0090945D03*
G54D34*
X-0106102Y-0100689D03*
X-0108071D03*
X-0110039D03*
X-0112008D03*
X-0113976D03*
X-0115945D03*
X-0117913D03*
X-0119882D03*
Y-0081201D03*
X-0117913D03*
X-0115945D03*
X-0113976D03*
X-0112008D03*
X-0110039D03*
X-0108071D03*
X-0106102D03*
G54D35*
X-0122736Y-0097835D03*
Y-0095866D03*
Y-0093898D03*
Y-0091929D03*
Y-0089961D03*
Y-0087992D03*
Y-0086024D03*
Y-0084055D03*
X-0103248D03*
Y-0086024D03*
Y-0087992D03*
Y-0089961D03*
Y-0091929D03*
Y-0093898D03*
Y-0095866D03*
Y-0097835D03*
G54D36*
X-0108169Y-0054626D03*
Y-0043799D03*
G54D37*
X-0064961Y-0031102D03*
Y-0055512D03*
G54D38*
X-0125591Y-0015748D03*
X-015D03*
G54D39*
X-0115256Y-0023327D03*
G54D40*
X-0111811Y-0023327D03*
G54D41*
X-0123524Y-0015354D02*
X-0122441Y-0016437D01*
Y-0022146D02*
Y-0016437D01*
Y-0022146D02*
X-012126Y-0023327D01*
X-0075295Y-001667D02*
X-0074373Y-0015748D01*
X-0072146*
X-0075295Y-0017975D02*
Y-001667D01*
X-0076218Y-0018898D02*
X-0075295Y-0017975D01*
X-0078543Y-0018898D02*
X-0076218D01*
X-007874Y-0018701D02*
X-0078543Y-0018898D01*
X-012126Y-0023327D02*
X-0115256D01*
G54D42*
X-0129921Y-0074311D02*
X-0129823Y-007441D01*
X-0138189Y-0074311D02*
X-0129921D01*
X-0138675Y-0074797D02*
X-0138189Y-0074311D01*
X-0153051Y-0120768D02*
X-015187Y-0119587D01*
X-0162697Y-0120768D02*
X-0153051D01*
X-0165354Y-011811D02*
X-0162697Y-0120768D01*
X-0114567Y-007185D02*
Y-0068012D01*
X-0149606Y-0062992D02*
Y-0061122D01*
X-0151575Y-0064961D02*
X-0149606Y-0062992D01*
X-0147441Y-0061024D02*
X-0146752Y-0060335D01*
X-0149508Y-0061024D02*
X-0147441D01*
X-0149606Y-0061122D02*
X-0149508Y-0061024D01*
X-0146752Y-0060335D02*
Y-0058661D01*
X-0134104Y-0071457D02*
X-0125591D01*
X-0133415Y-0068898D02*
X-0132136Y-0067618D01*
X-0134104Y-0068898D02*
X-0133415D01*
X-0132136Y-0067618D02*
X-013002D01*
X-0155056Y-0069095D02*
X-0150824Y-0073327D01*
X-0146651D02*
X-0145966Y-0072641D01*
X-0150824Y-0073327D02*
X-0146651D01*
X-0148425Y-0070374D02*
X-014439Y-0066339D01*
X-0141486*
X-0125591Y-0071457D02*
X-0125492Y-0071358D01*
X-0117913Y-0081201D02*
Y-0072149D01*
X-0122247Y-0067815D02*
X-0117913Y-0072149D01*
X-0122441Y-0067815D02*
X-0122247D01*
X-0125591Y-0066634D02*
Y-0066142D01*
X-0124803Y-0065354*
X-0120276*
X-0117815Y-0067815*
X-0128642Y-0067913D02*
X-0126575D01*
X-0113644Y-0063779D02*
X-0110039Y-0067385D01*
X-0128937Y-0063779D02*
X-0113644D01*
X-0129921Y-0062795D02*
X-0128937Y-0063779D01*
X-0122146Y-0061516D02*
X-0122047Y-0061417D01*
X-0125886Y-0061516D02*
X-0122146D01*
X-0110039Y-0080807D02*
Y-0067385D01*
X-0108071Y-0081201D02*
Y-0067126D01*
X-0115354Y-0059842D02*
X-0108071Y-0067126D01*
X-0115354Y-0059842D02*
Y-0045571D01*
X-0126083Y-007687D02*
X-0125984Y-0076968D01*
X-0091339Y-0080315D02*
X-0088484D01*
X-0074902Y-0110925D02*
X-0073819Y-0112008D01*
Y-0117323D02*
Y-0112008D01*
X-0067126Y-011811D02*
X-0060925D01*
X-0092323Y-0102756D02*
X-0087402D01*
X-0087303Y-0102854*
X-0092421Y-0102657D02*
X-0092323Y-0102756D01*
X-0095965Y-0096949D02*
X-0094784D01*
X-0096063D02*
X-0095965D01*
X-0096161Y-0097146D02*
X-0095965Y-0096949D01*
X-009311Y-0102264D02*
Y-0100394D01*
Y-0102264D02*
X-0093012Y-0102362D01*
X-0094193Y-0099311D02*
X-009311Y-0100394D01*
X-0094193Y-0099311D02*
Y-0097539D01*
X-0094784Y-0096949D02*
X-0094193Y-0097539D01*
X-0096161Y-0097047D02*
X-0096063Y-0096949D01*
X-0096161Y-0098721D02*
Y-0097146D01*
X-0097047Y-0099606D02*
X-0096161Y-0098721D01*
X-0099311Y-0099606D02*
X-0097047D01*
X-0102854Y-010315D02*
X-0099311Y-0099606D01*
X-0100726Y-0103445D02*
X-0095768D01*
X-0102005Y-0104724D02*
X-0100726Y-0103445D01*
X-0106141Y-0104724D02*
X-0102005D01*
X-0106793Y-0106299D02*
X-0098425D01*
X-0107446Y-0107874D02*
X-0099077D01*
X-0108098Y-0109449D02*
X-009973D01*
X-0100382Y-0111024D02*
X-0099988Y-0111417D01*
X-010875Y-0111024D02*
X-0100382D01*
X-0101969Y-0112598D02*
X-0098425Y-0116142D01*
X-0109403Y-0112598D02*
X-0101969D01*
X-0099077Y-0107874D02*
X-0098684Y-0108268D01*
X-0123515Y-0119685D02*
X-0096957D01*
X-0098425Y-0106299D02*
X-0098032Y-0106693D01*
X-0117913Y-0104087D02*
X-0109403Y-0112598D01*
X-0117913Y-0104087D02*
Y-0100689D01*
X-0099988Y-0111417D02*
X-0098139D01*
X-0115945Y-0103829D02*
X-010875Y-0111024D01*
X-0115945Y-0103829D02*
Y-0100689D01*
X-009973Y-0109449D02*
X-0099336Y-0109843D01*
X-0113976Y-010357D02*
X-0108098Y-0109449D01*
X-0113976Y-010357D02*
Y-0100689D01*
X-011197Y-0103349D02*
X-0107446Y-0107874D01*
X-011197Y-0103349D02*
Y-0100234D01*
X-0110002Y-0103091D02*
X-0106793Y-0106299D01*
X-0110002Y-0103091D02*
Y-0100727D01*
X-0108033Y-0102832D02*
X-0106141Y-0104724D01*
X-0108033Y-0102832D02*
Y-0100727D01*
X-0105489Y-010315D02*
X-0102854D01*
X-010614Y-0102498D02*
X-0105489Y-010315D01*
X-0096957Y-0119685D02*
X-0094882Y-0117609D01*
Y-0114674*
X-010614Y-0102498D02*
Y-0100727D01*
X-0112008Y-0100197D02*
X-011197Y-0100234D01*
X-010614Y-0100727D02*
X-0106102Y-0100689D01*
X-0110039D02*
X-0110002Y-0100727D01*
X-0094291Y-0088058D02*
Y-0083268D01*
X-0095669Y-0089436D02*
X-0094291Y-0088058D01*
X-0095669Y-0089862D02*
Y-0089436D01*
X-0099016Y-0084225D02*
Y-0078383D01*
X-0098032Y-0077399*
Y-0072736*
X-0097933Y-0072638*
X-0095915Y-0092864D02*
Y-0090305D01*
X-0096161Y-009311D02*
X-0095915Y-0092864D01*
X-0097441Y-0085732D02*
Y-0079035D01*
X-0094882Y-0076476*
Y-0076378*
X-0100777Y-0085986D02*
X-0099016Y-0084225D01*
X-010321Y-0085986D02*
X-0100777D01*
X-0103248Y-0086024D02*
X-010321Y-0085986D01*
X-0103445Y-0077362D02*
X-0103051Y-0077756D01*
Y-0083964D02*
Y-0077756D01*
X-0103142Y-0084055D02*
X-0103051Y-0083964D01*
X-0103248Y-0084055D02*
X-0103142D01*
X-0095866Y-0081496D02*
X-0091437Y-0077067D01*
X-0095866Y-0086385D02*
Y-0081496D01*
X-0101768Y-0090059D02*
X-0097441Y-0085732D01*
X-0101411Y-0091929D02*
X-0095866Y-0086385D01*
X-0094291Y-0083268D02*
X-0091339Y-0080315D01*
X-0096457Y-0054232D02*
X-009626Y-0054035D01*
X-010315Y-0090059D02*
X-0101768D01*
X-0103248Y-0089961D02*
X-010315Y-0090059D01*
X-0103248Y-0091929D02*
X-0101411D01*
X-009941Y-0093504D02*
X-0096653D01*
X-009626Y-009311*
X-0099902Y-0093996D02*
X-009941Y-0093504D01*
X-0099902Y-0097342D02*
Y-0093996D01*
X-0100394Y-0097835D02*
X-0099902Y-0097342D01*
X-0103248Y-0097835D02*
X-0100394D01*
X-0108071Y-0100689D02*
X-0108033Y-0100727D01*
X-0132283Y-011811D02*
X-0129544D01*
X-0132776D02*
X-0132283D01*
X-0084153Y-0110335D02*
X-0079134D01*
X-0078937Y-0110138*
X-0087795Y-0106693D02*
X-0084153Y-0110335D01*
X-0098032Y-0106693D02*
X-0087795D01*
X-0089803Y-0108268D02*
X-0085433Y-0112638D01*
X-0098684Y-0108268D02*
X-0089803D01*
X-0090456Y-0109843D02*
X-0087008Y-011329D01*
X-0099336Y-0109843D02*
X-0090456D01*
X-0085433Y-0119646D02*
Y-0112638D01*
X-0087008Y-0118993D02*
Y-011329D01*
X-0098139Y-0111417D02*
X-0094882Y-0114674D01*
X-0088622Y-0122835D02*
X-0085433Y-0119646D01*
X-0129035Y-0106201D02*
X-0125591Y-0109646D01*
X-0131988Y-0106201D02*
X-0129035D01*
X-0125591Y-0117609D02*
Y-0109646D01*
X-0128051Y-0117376D02*
Y-0113287D01*
X-0129035Y-0112303D02*
X-0128051Y-0113287D01*
X-013189Y-0112303D02*
X-0129035D01*
X-0127461Y-0104589D02*
X-0119747Y-0112303D01*
X-0095828Y-0044685D02*
X-0085633D01*
X-0083809Y-0046509*
Y-0047782D02*
Y-0046509D01*
Y-0047782D02*
X-0082182Y-0049409D01*
X-0078937*
X-0076772Y-0047244*
X-0086979Y-0050364D02*
Y-0047018D01*
X-008691Y-0046949*
X-00875Y-0050886D02*
X-0086979Y-0050364D01*
X-0125984Y-0080512D02*
Y-0076968D01*
Y-0083403D02*
Y-0080512D01*
X-0119193Y-0028543D02*
X-0118209Y-0027559D01*
X-011811*
X-0125984Y-0055118D02*
X-0125886Y-005502D01*
X-0148228Y-0047343D02*
X-0137795D01*
X-0146653Y-0050394D02*
X-014626Y-005D01*
X-0155512Y-0082677D02*
Y-0082583D01*
X-0091437Y-0077067D02*
X-0089075D01*
X-0088976Y-0077165*
X-0074379Y-0062894D02*
X-0073721Y-0063552D01*
X-007687Y-0062894D02*
X-0074379D01*
X-0076968Y-0062795D02*
X-007687Y-0062894D01*
X-0082776Y-0068209D02*
X-008248D01*
X-0073721Y-0066339D02*
Y-0063552D01*
X-0075295Y-0067913D02*
X-0073721Y-0066339D01*
X-0069491Y-0071063D02*
X-0068504Y-0070076D01*
X-0073425Y-0068504D02*
X-0071161D01*
X-007441Y-0069488D02*
X-0073425Y-0068504D01*
X-007687Y-0069488D02*
X-007441D01*
X-007572Y-0071063D02*
X-0069491D01*
X-0076181Y-0071524D02*
X-007572Y-0071063D01*
X-0076181Y-0073622D02*
Y-0071524D01*
X-008248Y-0067913D02*
X-0075295D01*
X-0078642Y-007126D02*
X-007687Y-0069488D01*
X-0094882Y-0072835D02*
X-0087402D01*
X-0082776Y-0068209*
X-0098228Y-0072441D02*
X-0097835Y-0072047D01*
Y-0068307*
X-0106102Y-0074348D02*
X-0093898Y-0062143D01*
X-0106102Y-0081693D02*
Y-0074348D01*
X-0093898Y-0062143D02*
Y-0057683D01*
X-0097835Y-0068307D02*
X-0092224Y-0062697D01*
Y-0059873*
X-0090748Y-0063448D02*
X-0090391Y-006309D01*
X-0088386*
X-0088189Y-0062894*
X-0090748Y-0067224D02*
Y-0063448D01*
X-0090158Y-0067815D02*
X-0087795D01*
X-0090748Y-0067224D02*
X-0090158Y-0067815D01*
X-0093898Y-0057683D02*
X-0091431Y-0055216D01*
X-0092224Y-0059873D02*
X-0091763Y-0060335D01*
X-0092224Y-0059873D02*
Y-005932D01*
X-0091763Y-0060335D02*
X-0088189D01*
X-0091535Y-0054626D02*
X-0091188Y-0054973D01*
X-0090945Y-0055216*
X-0091431D02*
X-0090945D01*
X-0103839Y-0086024D02*
X-0103801Y-0085986D01*
X-0076673Y-0074311D02*
X-0076181Y-0073819D01*
X-0078642Y-0074311D02*
X-0076673D01*
X-0078937Y-0074705D02*
X-0078642Y-007441D01*
X-007874D02*
X-0078642Y-0074311D01*
X-0078937Y-0081217D02*
Y-0074705D01*
Y-0081217D02*
X-0077165Y-0082989D01*
X-0081496Y-0097244D02*
X-0077165Y-0092913D01*
Y-0082989*
X-007874Y-007441D02*
X-0078642D01*
X-0085039Y-0087008D02*
X-0083465D01*
X-0081102Y-0084646*
Y-0072838*
X-0080214Y-0071949*
X-0079429*
X-007874Y-007126*
X-0078642*
X-0068504Y-0070076D02*
Y-006998D01*
X-0067027Y-0068504*
X-0066929*
X-0071161D02*
X-0070965Y-0068701D01*
X-0073684Y-0060335D02*
X-0071653Y-0062365D01*
Y-0064665D02*
Y-0062365D01*
Y-0064665D02*
X-0070965Y-0065354D01*
X-0070866*
X-0077165Y-0060335D02*
X-0073684D01*
X-0071755Y-0060036D02*
X-0071752D01*
X-0074016Y-0057776D02*
X-0071755Y-0060036D01*
X-0077165Y-0057776D02*
X-0074016D01*
X-0071752Y-0060036D02*
X-0069485Y-0062303D01*
X-0067421*
X-0066831Y-0065059D02*
Y-0062894D01*
X-0067421Y-0062303D02*
X-0066831Y-0062894D01*
X-0066215Y-004498D02*
X-0064961D01*
X-0079134Y-004311D02*
X-0068085D01*
X-0066215Y-004498*
X-0080709Y-0044685D02*
X-0079134Y-004311D01*
X-0080709Y-0047244D02*
Y-0044685D01*
X-0073425Y-0054724D02*
Y-0048228D01*
X-007441Y-0047244D02*
X-0073425Y-0048228D01*
X-0076772Y-0047244D02*
X-007441D01*
X-0073917Y-0055216D02*
X-0073425Y-0054724D01*
X-0077165Y-0055216D02*
X-0073917D01*
X-0096457Y-0057579D02*
Y-0054232D01*
X-0097736Y-0058268D02*
X-0097342Y-0057874D01*
X-0097736Y-0060925D02*
Y-0058268D01*
X-0092224Y-005932D02*
X-0090877Y-0057972D01*
X-0088386*
X-0088189Y-0057776*
X-0090945Y-0055216D02*
X-0088189D01*
X-0091535Y-0054626D02*
Y-005187D01*
X-0090551Y-0050886D02*
X-00875D01*
X-0091535Y-005187D02*
X-0090551Y-0050886D01*
X-0132972Y-0078245D02*
Y-0077658D01*
X-0134058Y-0079331D02*
X-0132972Y-0078245D01*
X-014364Y-0079331D02*
X-0134058D01*
X-0144587Y-0078384D02*
X-014364Y-0079331D01*
X-0144587Y-0078384D02*
Y-0077362D01*
X-0145177Y-0076772D02*
X-0144587Y-0077362D01*
Y-008429D02*
X-014364Y-0085236D01*
X-0134058*
X-0132973Y-0084151*
Y-0083465*
X-0132874Y-0083366*
X-0132776*
X-0132972Y-0090056D02*
Y-0088484D01*
Y-0088091*
X-013248Y-0088386D02*
X-0129134D01*
X-0132579Y-0088484D02*
X-013248Y-0088386D01*
X-0134058Y-0091142D02*
X-0132972Y-0090056D01*
X-0144587Y-0119723D02*
X-014364Y-0120669D01*
X-0144587Y-0119723D02*
Y-0118701D01*
X-0151969Y-011811D02*
X-015187Y-0118209D01*
Y-0119587D02*
Y-0118209D01*
X-014364Y-0091142D02*
X-0134058D01*
X-0132972Y-0118307D02*
X-0132776Y-011811D01*
X-0132972Y-0119584D02*
Y-0118307D01*
X-0134058Y-0120669D02*
X-0132972Y-0119584D01*
X-014364Y-0120669D02*
X-0134058D01*
X-0145177Y-011811D02*
X-0144587Y-0118701D01*
X-0145374Y-0112205D02*
X-0145177Y-0112008D01*
X-0132972Y-0113678D02*
Y-0112598D01*
X-0134058Y-0114764D02*
X-0132972Y-0113678D01*
X-014364Y-0114764D02*
X-0134058D01*
X-0144587Y-0113817D02*
X-014364Y-0114764D01*
X-0144587Y-0113817D02*
Y-0112795D01*
X-0145177Y-0112205D02*
X-0144587Y-0112795D01*
X-0132973Y-0106988D02*
X-0132972D01*
X-0132973Y-0107773D02*
Y-0106988D01*
X-0134058Y-0108858D02*
X-0132973Y-0107773D01*
X-014364Y-0108858D02*
X-0134058D01*
X-0144587Y-0107912D02*
X-014364Y-0108858D01*
X-0144587Y-0107912D02*
Y-010689D01*
X-0145177Y-0106299D02*
X-0144587Y-010689D01*
X-0132973Y-0100984D02*
X-0132677Y-0100689D01*
X-0132973Y-0101867D02*
Y-0100984D01*
X-0134058Y-0102953D02*
X-0132973Y-0101867D01*
X-014364Y-0102953D02*
X-0134058D01*
X-0144587Y-0102006D02*
X-014364Y-0102953D01*
X-0144587Y-0102006D02*
Y-0100984D01*
X-0145177Y-0100394D02*
X-0144587Y-0100984D01*
X-0132185Y-0094488D02*
X-0129724D01*
X-0132973Y-0095276D02*
X-0132185Y-0094488D01*
X-014364Y-0097047D02*
X-0134058D01*
X-0132973Y-0095962*
Y-0095276*
X-0144587Y-0096101D02*
X-014364Y-0097047D01*
X-0144587Y-0096101D02*
Y-0095079D01*
X-0145177Y-0094488D02*
X-0144587Y-0095079D01*
Y-0090195D02*
X-014364Y-0091142D01*
X-0144587Y-0090195D02*
Y-0089173D01*
X-0145177Y-0088583D02*
X-0144587Y-0089173D01*
X-013189Y-0082837D02*
X-0131004D01*
X-0125849Y-0087992*
X-0128347Y-0083268D02*
Y-0078445D01*
X-0144587Y-008429D02*
Y-0083268D01*
X-0145177Y-0082677D02*
X-0144587Y-0083268D01*
X-0129724Y-0077067D02*
X-0128347Y-0078445D01*
X-0131988Y-0077067D02*
X-0129724D01*
X-0114871Y-0110433D02*
X-0114576Y-0110728D01*
X-011939Y-0110433D02*
X-0114871D01*
X-0119747Y-0112303D02*
X-0119685D01*
X-0118504Y-0113484*
X-011998Y-0112008D02*
X-0119685Y-0112303D01*
X-0118504Y-0115453D02*
Y-0113484D01*
X-0125886Y-0103937D02*
X-011939Y-0110433D01*
X-0118504Y-0115453D02*
X-0117815Y-0116142D01*
X-0114173*
X-0110997Y-0114307D02*
X-0109847Y-0115457D01*
X-0106988Y-0115453D02*
X-0106299Y-0116142D01*
X-0109843Y-0115453D02*
X-0106988D01*
X-0124167Y-012126D02*
X-0089275D01*
X-0087008Y-0118993*
X-012482Y-0122835D02*
X-0088622D01*
X-0129544Y-011811D02*
X-012482Y-0122835D01*
X-0128051Y-0117376D02*
X-0124167Y-012126D01*
X-0125591Y-0117609D02*
X-0123515Y-0119685D01*
X-0114576Y-0110728D02*
X-0110997Y-0114307D01*
X-0122774Y-0095904D02*
X-0122736Y-0095866D01*
X-0125493Y-0095904D02*
X-0122774D01*
X-0127461Y-0097871D02*
X-0125493Y-0095904D01*
X-0127461Y-0104589D02*
Y-0097871D01*
X-0125197Y-0097835D02*
X-0122736D01*
X-0125886Y-0098524D02*
X-0125197Y-0097835D01*
X-0125886Y-0103937D02*
Y-0098524D01*
X-0129232Y-0099803D02*
Y-0096493D01*
X-0129823Y-0100394D02*
X-0129232Y-0099803D01*
X-0132283Y-0100394D02*
X-0129823D01*
X-0129232Y-0096493D02*
X-0126637Y-0093898D01*
X-0122736*
X-0129724Y-0094488D02*
X-012874Y-0093504D01*
X-0122736Y-0091929D02*
X-0122539D01*
X-012874Y-0093504D02*
Y-009239D01*
X-0128279Y-0091929D02*
X-0122736D01*
X-012874Y-009239D02*
X-0128279Y-0091929D01*
X-0127559Y-0089961D02*
X-0122736D01*
X-0129134Y-0088386D02*
X-0127559Y-0089961D01*
X-0151969Y-0076378D02*
X-0151575Y-0076772D01*
X-0125849Y-0087992D02*
X-0122736D01*
X-0128347Y-0083268D02*
X-0125591Y-0086024D01*
X-0138675Y-0076772D02*
Y-0074797D01*
X-0144009Y-0072641D02*
X-0142726Y-0071358D01*
X-0145966Y-0072641D02*
X-0144009D01*
X-0144987Y-0070279D02*
X-0144885D01*
X-0143504Y-0068898*
X-0141831*
X-0125984Y-0083403D02*
X-012537Y-0084017D01*
X-0122774D02*
X-0122736Y-0084055D01*
X-012537Y-0084017D02*
X-0122774D01*
X-0125591Y-0086024D02*
X-0122736D01*
X-0108071Y-0081398D02*
Y-0081201D01*
X-0116437Y-0044488D02*
X-0115354Y-0045571D01*
X-0151969Y-0076772D02*
D01*
X-0147084Y-0066634D02*
X-0142753Y-0062303D01*
X-0149907Y-0066634D02*
X-0147084D01*
X-0142726Y-0071358D02*
X-0141585D01*
X-0141486Y-0071457*
X-0150596Y-0067323D02*
X-0149907Y-0066634D01*
X-0157511Y-0067323D02*
X-0150596D01*
X-0134104Y-0066289D02*
Y-0063927D01*
X-0135728Y-0062303D02*
X-0134104Y-0063927D01*
X-0142753Y-0062303D02*
X-0135728D01*
X-0151115Y-0065059D02*
X-0150984D01*
X-0129921Y-0062795D02*
Y-005857D01*
X-0128347Y-0059938D02*
X-0127458Y-0060827D01*
X-0128347Y-0059938D02*
Y-0056595D01*
X-0131852Y-0058109D02*
X-0130383D01*
X-0129921Y-005857*
X-013189Y-0058071D02*
X-0131852Y-0058109D01*
X-0125886Y-0061516D02*
D01*
X-0158231Y-0069095D02*
X-0155056D01*
X-0161811Y-0067742D02*
X-0155927Y-0073625D01*
X-0152752*
X-0161811Y-0067742D02*
Y-0061524D01*
X-0152752Y-0073625D02*
X-0151969Y-007441D01*
Y-0076378D02*
Y-007441D01*
X-0158661Y-0066173D02*
X-0157511Y-0067323D01*
X-0158661Y-0066173D02*
Y-0041437D01*
X-0151181Y-0065059D02*
Y-0064993D01*
X-0160236Y-0067089D02*
X-0158231Y-0069095D01*
X-0151772Y-011811D02*
X-0145276D01*
X-0151969Y-0112205D02*
X-0145374D01*
X-0151969D02*
D01*
Y-0106299D02*
X-0145177D01*
X-0151969D02*
D01*
X-0152165Y-0100394D02*
Y-0098032D01*
X-0151969Y-0100394D02*
X-0145276D01*
X-0151969Y-0094488D02*
X-0145276D01*
X-0151969Y-0088583D02*
X-0145177D01*
X-0151969Y-0082677D02*
X-0145177D01*
X-0169685Y-0114567D02*
X-0152756D01*
X-0159449Y-0112205D02*
X-0155512D01*
X-0151969D02*
X-015187Y-0112303D01*
X-0152756Y-0114567D02*
X-015187Y-0113681D01*
Y-0112303*
X-0173228Y-011811D02*
X-0169685Y-0114567D01*
X-0151969Y-0106299D02*
Y-0104232D01*
X-0152756Y-0103445D02*
X-0151969Y-0104232D01*
X-0160925Y-0103445D02*
X-0152756D01*
X-0161811Y-0102559D02*
X-0160925Y-0103445D01*
X-0161811Y-0102559D02*
Y-0099803D01*
X-0162894Y-0098721D02*
X-0161811Y-0099803D01*
X-0168996Y-0098721D02*
X-0162894D01*
X-0173228Y-0094488D02*
X-0168996Y-0098721D01*
X-0162697Y-0097146D02*
X-0153051D01*
X-0165354Y-0094488D02*
X-0162697Y-0097146D01*
X-0153051D02*
X-0152165Y-0098032D01*
Y-0094193D02*
Y-0091831D01*
Y-0094193D02*
X-0152067Y-0094291D01*
X-0153051Y-0090945D02*
X-0152165Y-0091831D01*
X-0160427Y-0090945D02*
X-0153051D01*
X-0160624Y-0090748D02*
X-0160427Y-0090945D01*
X-0160728Y-0090748D02*
X-0160624D01*
X-0161811Y-0089665D02*
X-0160728Y-0090748D01*
X-0161811Y-0089665D02*
Y-0085146D01*
X-0164637Y-008232D02*
X-0161811Y-0085146D01*
X-0169649Y-008232D02*
X-0164637D01*
X-0173228Y-007874D02*
X-0169649Y-008232D01*
X-0165354Y-0079376D02*
X-0159504Y-0085226D01*
X-0165354Y-0079376D02*
Y-007874D01*
X-0159063Y-0082288D02*
X-0155807D01*
X-0155512Y-0082583*
X-0159504Y-0085226D02*
X-0152766D01*
X-0159449Y-0088583D02*
X-0155512D01*
X-015187Y-0082579D02*
Y-0080512D01*
X-0151969Y-0082677D02*
X-015187Y-0082579D01*
X-0152463Y-0079721D02*
X-015187Y-0080315D01*
X-015984Y-0079721D02*
X-0152463D01*
X-0152766Y-0085226D02*
X-015187Y-0086122D01*
Y-0088386D02*
Y-0086122D01*
X-0161811Y-007775D02*
X-015984Y-0079721D01*
X-0161811Y-007775D02*
Y-007441D01*
X-0165354Y-0070866D02*
X-0161811Y-007441D01*
X-0151575Y-0076772D02*
X-0145669D01*
X-0164674Y-0058661D02*
X-0161811Y-0061524D01*
X-0164674Y-0058661D02*
Y-0055798D01*
X-0165354Y-0055118D02*
X-0164674Y-0055798D01*
X-0160236Y-0067089D02*
Y-0045638D01*
X-0162174Y-0043701D02*
X-0160236Y-0045638D01*
Y-0039862D02*
X-0158661Y-0041437D01*
X-0159449Y-011811D02*
X-0155512D01*
X-0159449Y-0106299D02*
X-0155512D01*
X-0159449Y-0100394D02*
X-0155512D01*
X-0159449Y-0094488D02*
X-0155512D01*
X-0159449Y-0076772D02*
X-0155512D01*
X-0059842Y-0009744D02*
Y-0006988D01*
X-0063386Y-0003445D02*
X-0059842Y-0006988D01*
X-0104626Y-0003445D02*
X-0063386D01*
X-0105512Y-0004331D02*
X-0104626Y-0003445D01*
X-0105512Y-0005217D02*
Y-0004331D01*
Y-0005217D02*
X-0105217Y-0005512D01*
X-0105413D02*
X-0105217D01*
X-0149803Y-0041437D02*
X-0149606Y-0041634D01*
X-0151181Y-0064993D02*
X-0151115Y-0065059D01*
X-0172146Y-0045669D02*
X-0170177Y-0043701D01*
X-0162174*
X-0164272Y-0039862D02*
X-0160236D01*
X-0164961Y-0039173D02*
X-0164272Y-0039862D01*
X-0125984Y-0048228D02*
X-0125886Y-004813D01*
X-0122047Y-0028543D02*
X-0119193D01*
X-0125984D02*
X-0122047D01*
X-012185Y-004813D02*
X-0119422D01*
X-0118536Y-0047244*
X-011811*
X-0144095Y-0036417D02*
X-0143701D01*
X-0147534Y-0037205D02*
X-0146752Y-0036423D01*
X-01441*
X-0144095Y-0036417*
X-0149803Y-0037205D02*
X-0147534D01*
X-015Y-0037402D02*
X-0149803Y-0037205D01*
X-0150246Y-0037648D02*
X-015Y-0037402D01*
X-0150689Y-0037992D02*
X-0150295Y-0037598D01*
X-0146752Y-0058661D02*
X-0146199Y-0058109D01*
X-0143738*
X-0143701Y-0058071*
X-0150197Y-0057087D02*
X-015D01*
X-0150295Y-0056988D02*
X-0150197Y-0057087D01*
X-015D02*
X-0147539D01*
X-0146593Y-005614*
X-0143738*
X-0143701Y-0056102*
X-0150689Y-005856D02*
Y-0057185D01*
X-0151578Y-0059449D02*
X-0150689Y-005856D01*
X-015187Y-0059449D02*
X-0151578D01*
X-0153543Y-0061122D02*
X-015187Y-0059449D01*
X-0153347Y-0052854D02*
X-0153248Y-0052953D01*
X-0153445Y-005689D02*
X-0153347Y-0056791D01*
Y-0053347*
X-0153543Y-005315D02*
X-0153347Y-0053347D01*
Y-0052854D02*
Y-0049409D01*
X-015315Y-0049213*
X-015Y-0049114D02*
X-0148228Y-0047343D01*
X-015Y-0049213D02*
Y-0049114D01*
X-0146653Y-0053635D02*
Y-0050394D01*
X-0149409Y-0053347D02*
X-0146949D01*
X-0149606Y-005315D02*
X-0149409Y-0053347D01*
X-0146555Y-0052165D02*
X-0143701D01*
X-0146653Y-0053635D02*
X-0146192Y-0054096D01*
X-0143738*
X-0143701Y-0054134*
X-0126083Y-0055118D02*
X-0125984Y-005502D01*
X-0127458Y-0060827D02*
X-0126575D01*
X-0125886Y-0061516*
X-0128839Y-0056102D02*
X-0128347Y-0056595D01*
X-013189Y-0056102D02*
X-0128839D01*
X-0127559Y-0055118D02*
X-0126083D01*
X-0128543Y-0054134D02*
X-0127559Y-0055118D01*
X-0131299Y-0054134D02*
D01*
X-0125984Y-0058366D02*
Y-0055118D01*
X-0122047Y-0058366D02*
Y-005502D01*
Y-0058465D02*
Y-0058366D01*
Y-0052067D02*
X-0121752D01*
X-0125984D02*
X-0122047D01*
Y-005502D02*
Y-0052165D01*
X-0131299Y-0054134D02*
X-0128543D01*
X-0121752Y-0052067D02*
D01*
X-0125886Y-004813D02*
X-0122047D01*
X-0128937Y-0049311D02*
X-012815Y-0048524D01*
X-0126575*
X-0126378Y-0048327*
X-0128937Y-0051704D02*
Y-0049311D01*
X-0129398Y-0052165D02*
X-0128937Y-0051704D01*
X-013189Y-0052165D02*
X-0129398D01*
X-0127854Y-0044488D02*
X-0116437D01*
X-0129921Y-0042421D02*
X-0127854Y-0044488D01*
X-0129921Y-0042421D02*
Y-0038847D01*
X-0130383Y-0038386D02*
X-0129921Y-0038847D01*
X-013189Y-0038386D02*
X-0130383D01*
X-0149606Y-0041634D02*
Y-0041437D01*
Y-0045276D02*
Y-0041634D01*
Y-0041437D02*
D01*
X-0146653Y-0033563D02*
Y-0031004D01*
Y-0033988D02*
Y-0033563D01*
X-0146752Y-0033465D02*
X-0146653Y-0033563D01*
X-0149606Y-0033465D02*
X-0146752D01*
X-0146555Y-003248D02*
X-0143701D01*
X-0146192Y-0034449D02*
X-0143701D01*
X-0146653Y-0033988D02*
X-0146192Y-0034449D01*
X-0122638Y-0041929D02*
X-0122047Y-0041339D01*
X-0127655Y-0041637D02*
X-0127061D01*
X-0128347Y-0040945D02*
X-0127655Y-0041637D01*
X-0128347Y-0040945D02*
Y-0037402D01*
X-0125984Y-0041929D02*
X-0122638D01*
X-0129293Y-0036455D02*
X-0128347Y-0037402D01*
X-0131852Y-0036455D02*
X-0129293D01*
X-013189Y-0036417D02*
X-0131852Y-0036455D01*
X-0127953Y-0035433D02*
X-0125984D01*
X-0128899Y-0034486D02*
X-0127953Y-0035433D01*
X-013189Y-0034449D02*
X-0131852Y-0034411D01*
X-0125984Y-003878D02*
X-0125787D01*
X-0125984D02*
Y-0035433D01*
X-0122047Y-003878D02*
Y-0035433D01*
Y-003937D02*
Y-003878D01*
Y-0035433D02*
Y-003248D01*
X-0125984D02*
X-0122047D01*
X-0148031Y-0027559D02*
X-0137795D01*
X-015Y-0029528D02*
X-0148031Y-0027559D01*
X-0131852Y-0034486D02*
X-0128899D01*
X-013189Y-0034449D02*
X-0131852Y-0034486D01*
X-0127953Y-0028543D02*
X-0125984D01*
X-0128937Y-0029528D02*
X-0127953Y-0028543D01*
X-0128937Y-0032019D02*
Y-0029528D01*
X-0129398Y-003248D02*
X-0128937Y-0032019D01*
X-013189Y-003248D02*
X-0129398D01*
X-013189D02*
D01*
X-0150689Y-0038875D02*
Y-0038189D01*
X-0151578Y-0039764D02*
X-0150689Y-0038875D01*
X-015187Y-0039764D02*
X-0151578D01*
X-0153543Y-0041437D02*
X-015187Y-0039764D01*
X-0146949Y-0038847D02*
X-0146488Y-0038386D01*
X-0146949Y-0040945D02*
Y-0038847D01*
X-0147638Y-0041634D02*
X-0146949Y-0040945D01*
X-0149606Y-0041634D02*
X-0147638D01*
X-0146488Y-0038386D02*
X-0143701D01*
X-0153347Y-0033465D02*
Y-0029724D01*
Y-0037106D02*
X-015315Y-0037303D01*
X-0153347Y-0037106D02*
Y-0033661D01*
X-0153543Y-0033465D02*
X-0153347Y-0033661D01*
Y-0029724D02*
X-015315Y-0029528D01*
G54D43*
X-0129823Y-0074311D02*
X-0122638D01*
Y-007185D02*
X-0122539Y-0071752D01*
X-0122638Y-0074311D02*
Y-007185D01*
Y-0074311D02*
X-0122047Y-0074902D01*
Y-0076772D02*
Y-0074902D01*
X-0138675Y-0076772D02*
X-0135433D01*
X-0121653D02*
X-0120669D01*
X-0119882Y-0077559*
Y-0081201D02*
Y-0077559D01*
X-0141929Y-0076772D02*
X-0138976D01*
X-0141732Y-011811D02*
X-0138976D01*
X-0135433*
X-0142126Y-0112205D02*
X-0138976D01*
X-0135433*
X-0141732Y-0106299D02*
X-0138976D01*
X-0136221*
X-0142126Y-0100779D02*
X-014174Y-0100394D01*
X-0138976*
X-0142126Y-0100787D02*
Y-0100779D01*
X-0138976Y-0100394D02*
X-0135827D01*
X-0142126Y-0094488D02*
X-0138976D01*
X-0135433*
X-0142224Y-0088583D02*
X-0138976D01*
X-014252D02*
X-0142224D01*
X-0138976D02*
X-0136221D01*
X-0138976Y-0082677D02*
X-0135433D01*
X-0142224D02*
X-0138976D01*
X-014252D02*
X-0142224D01*
X-0084744Y-0016142D02*
X-0084646Y-0016043D01*
X-0090847Y-0016142D02*
X-0084744D01*
X-0090847D02*
D01*
G54D44*
X-0102362Y-0031693D02*
X-0098917D01*
X-0095374Y-0041831D02*
X-0085633D01*
X-0096161Y-0041043D02*
X-0095374Y-0041831D01*
X-0084941Y-0041139D02*
Y-0039272D01*
X-0085039Y-0031693D02*
X-0078937D01*
X-0096161Y-0041043D02*
Y-0039272D01*
X-0085633Y-0041831D02*
X-0084941Y-0041139D01*
X-0096161Y-0039272D02*
X-0096063Y-0039173D01*
X-0115748Y-0008465D02*
X-0115354Y-0008858D01*
X-0064764Y-0044685D02*
Y-0040157D01*
X-0064862Y-0044783D02*
X-0064764Y-0044685D01*
X-006565Y-0039272D02*
X-0064764Y-0040157D01*
X-0074902Y-0039272D02*
X-006565D01*
X-007874Y-0035433D02*
X-0074902Y-0039272D01*
X-0082087Y-0038383D02*
Y-0032286D01*
X-0082779Y-0039075D02*
X-0082087Y-0038383D01*
X-0085039Y-0039173D02*
X-0084941Y-0039075D01*
X-0082779*
X-0082087Y-0032286D02*
X-0081741Y-003194D01*
X-0093602Y-0048228D02*
X-0093012Y-0047638D01*
X-0090551*
X-0090158Y-0047244*
X-0096457Y-0048228D02*
X-0093602D01*
X-0096457D02*
D01*
X-0098917Y-0043504D02*
Y-0034643D01*
Y-0043504D02*
X-0098032Y-004439D01*
X-0097539*
X-0096457Y-0047933D02*
Y-0045472D01*
X-0107677Y-0025984D02*
X-0088779D01*
X-0087598Y-0024803*
X-0108268Y-0025394D02*
X-0107677Y-0025984D01*
X-011545Y-0019291D02*
X-0106004D01*
X-0087598Y-0024803D02*
Y-0023133D01*
X-0090847Y-0022441D02*
X-008829D01*
X-0090847D02*
D01*
X-008829D02*
X-0087598Y-0023133D01*
X-0088583Y-0035433D02*
X-0085039D01*
X-0088976D02*
X-0088583D01*
X-0089075Y-0035335D02*
X-0088976Y-0035433D01*
X-0078937Y-0031693D02*
X-007874Y-0031496D01*
X-0098917Y-0031693D02*
X-0096063D01*
X-0098917Y-0034643D02*
Y-0031693D01*
Y-0034643D02*
X-0098225Y-0035335D01*
X-0096161*
X-0096063Y-0035433*
X-0102165Y-0005906D02*
X-0094095D01*
X-0084547Y-0011909D02*
Y-0006988D01*
X-0085433Y-0006102D02*
X-0084547Y-0006988D01*
X-0090748Y-0006102D02*
X-0085433D01*
X-0085335Y-0012992D02*
X-0084646Y-0012303D01*
X-0084547Y-0011909D02*
X-0084449Y-0012008D01*
X-0084646Y-0012303D02*
X-008435D01*
X-007874Y-0012795D02*
Y-0007579D01*
X-0080118Y-0006201D02*
X-007874Y-0007579D01*
X-0084842Y-0006201D02*
X-0080118D01*
X-0079823Y-0018504D02*
X-0079429Y-0018898D01*
X-0082972Y-0018504D02*
X-0079823D01*
X-008376Y-0019291D02*
X-0082972Y-0018504D01*
X-0090847Y-0019291D02*
X-008376D01*
X-0090847Y-0012992D02*
X-0085335D01*
X-0090945Y-0005906D02*
X-0090748Y-0006102D01*
X-0102264Y-0005807D02*
X-0102165Y-0005906D01*
X-0102362Y-0006201D02*
X-0102165Y-0006004D01*
X-0109449Y-0024213D02*
Y-001939D01*
Y-0024213D02*
X-0108268Y-0025394D01*
X-0106004Y-0022441D02*
D01*
X-0108757D02*
X-0106004D01*
X-0116142Y-0018599D02*
X-011545Y-0019291D01*
X-0116142Y-0018599D02*
Y-0015059D01*
X-0115354Y-0008858D02*
X-0112205D01*
X-0111614Y-0009449*
Y-0014862D02*
Y-0009449D01*
Y-0014862D02*
X-0110335Y-0016142D01*
X-0106004*
X-0102362Y-0008661D02*
Y-0006201D01*
X-0103445Y-0009744D02*
X-0102362Y-0008661D01*
X-010876Y-0009744D02*
X-0103445D01*
X-0109449Y-0010433D02*
X-010876Y-0009744D01*
X-0109449Y-00123D02*
Y-0010433D01*
Y-00123D02*
X-0108757Y-0012992D01*
X-0106004*
X-0111811Y-0027559D02*
Y-0023327D01*
X-0109151Y-0016142D02*
X-0106004D01*
G54D45*
X-0109252Y-0033563D02*
X-0109153Y-0033661D01*
X-011811Y-0027559D02*
X-0118035Y-0027634D01*
X-0102362Y-0035925D02*
X-0101673Y-0036614D01*
Y-0060236D02*
Y-0036614D01*
X-0102461Y-0061024D02*
X-0101673Y-0060236D01*
X-0108268Y-0061024D02*
X-0102067D01*
X-0107185Y-002874D02*
X-0088195D01*
X-0115945Y-0027657D02*
X-0115157Y-0028445D01*
Y-0033465D02*
Y-0028445D01*
X-0118035Y-0027634D02*
X-0116165D01*
X-0108169Y-0043602D02*
Y-003937D01*
X-0109547Y-0037992D02*
X-0108169Y-003937D01*
X-0114004Y-0037992D02*
X-0109547D01*
X-0115157Y-0036839D02*
X-0114004Y-0037992D01*
X-0115157Y-0036839D02*
Y-0033465D01*
X-0109252Y-0033563D02*
Y-0030807D01*
X-0079204Y-002874D02*
X-007874Y-0029204D01*
X-0088195Y-002874D02*
X-0079204D01*
X-0088195D02*
D01*
X-0109252Y-0030807D02*
X-0107185Y-002874D01*
X-007874Y-0031496D02*
Y-0029204D01*
X-0066929Y-0031496D02*
D01*
X-007874D02*
X-0066929D01*
X-0061516Y-0022047D02*
X-0060433D01*
X-0061811Y-0022343D02*
X-0061516Y-0022047D01*
X-0063681Y-0022343D02*
X-0061811D01*
X-0064961Y-0023622D02*
X-0063681Y-0022343D01*
X-0064961Y-0031102D02*
Y-0023622D01*
X-013189Y-0015748D02*
X-0125591D01*
X-0143898Y-000374D02*
X-013189Y-0015748D01*
X-0179921Y-000374D02*
X-0143898D01*
X-0181398Y-0005217D02*
X-0179921Y-000374D01*
X-0181398Y-0045796D02*
Y-0005217D01*
Y-0045796D02*
X-0179949Y-0047244D01*
X-0173228*
G54D46*
X-0118701Y-0008858D02*
X-011565D01*
X-012436Y-0014518D02*
X-0118701Y-0008858D01*
G54D47*
X-0108268Y-0061024D02*
Y-0054724D01*
X-0108169Y-0054626*
X-0064961Y-0055512D02*
Y-0045276D01*
G54D48*
X-0165354Y-0007874D03*
X-0090551Y-0116142D03*
G54D49*
X-0173228Y-0007874D03*
X-0165354Y-0015748D03*
X-0173228D03*
X-0165354Y-0023622D03*
X-0173228D03*
X-0165354Y-0031496D03*
X-0173228D03*
X-0165354Y-003937D03*
X-0173228D03*
X-0165354Y-0047244D03*
X-0173228D03*
X-0165354Y-0055118D03*
X-0173228D03*
X-0165354Y-0062992D03*
X-0173228D03*
X-0165354Y-0070866D03*
X-0173228D03*
X-0165354Y-007874D03*
X-0173228D03*
X-0165354Y-0086614D03*
X-0173228D03*
X-0165354Y-0094488D03*
X-0173228D03*
X-0165354Y-0102362D03*
X-0173228D03*
X-0165354Y-0110236D03*
X-0173228D03*
X-0165354Y-011811D03*
X-0173228D03*
X-0098425Y-0116142D03*
X-0106299D03*
X-0114173D03*
X-0122047D03*
G54D50*
X-0129921Y-0071555D03*
X-0148425Y-0070571D03*
G54D51*
X-013002Y-0067618D03*
X-0114567Y-007185D03*
X-0060433Y-0118209D03*
X-0087697Y-0102756D03*
X-0095669Y-0089862D03*
X-0095276Y-007687D03*
X-008248Y-0067913D03*
X-0087795Y-0067815D03*
X-0103051Y-0077559D03*
X-0096555Y-0044685D03*
X-0096457Y-0057579D03*
X-0125984Y-0080512D03*
X-0144987Y-0070279D03*
X-0151575Y-0064961D03*
X-0138976Y-011811D03*
Y-0112205D03*
Y-0106299D03*
Y-0100394D03*
Y-0094488D03*
Y-0088583D03*
Y-0082677D03*
Y-0076772D03*
X-0159449Y-0112205D03*
X-0159063Y-0082288D03*
X-0159449Y-0088583D03*
Y-011811D03*
Y-0106299D03*
Y-0100394D03*
Y-0094488D03*
Y-0076772D03*
X-011811Y-0027657D03*
X-0112008D03*
X-011811Y-0047244D03*
X-0137795D03*
X-0146555Y-0050098D03*
X-0125984Y-005502D03*
X-0122047D03*
X-0137795Y-0027559D03*
X-0125984Y-0035433D03*
X-0146653Y-0030512D03*
X-0122047Y-0035433D03*
X-0149606Y-0045276D03*
G54D52*
X-0108268Y-0061024D03*
X-0064961Y-0045276D03*
X-0084547Y-0007185D03*
G54D53*
X-0082677Y-0062795D03*
Y-0055315D03*
X-0084941Y-0059055D03*
X-0080413D03*
G54D54*
X-0088583Y-0035433D03*
X-0090551Y-0038583D03*
X-009252Y-0035433D03*
X-0090551Y-0032283D03*
X-0101575Y-0019291D03*
Y-0016142D03*
Y-0022441D03*
Y-0012992D03*
X-0095276Y-0019291D03*
Y-0016142D03*
Y-0022441D03*
Y-0012992D03*
X-0098425D03*
Y-0022441D03*
Y-0016142D03*
Y-0019291D03*
X-0137795Y-0033268D03*
Y-0037598D03*
Y-0052953D03*
Y-0057284D03*
X-0117323Y-0086614D03*
X-0112992D03*
X-0108661D03*
X-0117323Y-0090945D03*
X-0112992D03*
X-0108661D03*
X-0117323Y-0095276D03*
X-0112992D03*
X-0108661D03*
M02*